{
  "expenses": [
    {
      "id": "9a786354-17ba-4c9b-8efb-5ca537efcf25",
      "title": "a book",
      "amount": 12.1,
      "createdAt": "2023-01-04T00:00:00.000Z"
    },
    {
      "id": "18d482ce-861c-496a-b194-b8097160f6c3",
      "title": "grocery",
      "amount": 22.1,
      "createdAt": "2022-01-20T00:00:00.000Z"
    },
    {
      "id": "b9c02b7b-8c8b-4d3e-97c0-7ed6011bb114",
      "title": "Carpet",
      "amount": 12.9,
      "createdAt": "2022-12-12T00:00:00.000Z"
    }
  ],
  "posts": [
    {
      "userId": 1,
      "id": 1,
      "title": "sunt aut facere repellat provident occaecati excepturi optio reprehenderit",
      "body": "quia et suscipit\nsuscipit recusandae consequuntur expedita et cum\nreprehenderit molestiae ut ut quas totam\nnostrum rerum est autem sunt rem eveniet architecto"
    },
    {
      "userId": 1,
      "id": 3,
      "title": "ea molestias quasi exercitationem repellat qui ipsa sit aut",
      "body": "et iusto sed quo iure\nvoluptatem occaecati omnis eligendi aut ad\nvoluptatem doloribus vel accusantium quis pariatur\nmolestiae porro eius odio et labore et velit aut"
    },
    {
      "userId": 1,
      "id": 4,
      "title": "eum et est occaecati",
      "body": "ullam et saepe reiciendis voluptatem adipisci\nsit amet autem assumenda provident rerum culpa\nquis hic commodi nesciunt rem tenetur doloremque ipsam iure\nquis sunt voluptatem rerum illo velit"
    }
  ]
}